[
    {
        "breed": "Berger Allemand",
        "playful": 4,
        "obedient": 3,
        "clean": 3,
        "calm": 3,
        "smart": 4,
        "kind": 3,
        "durable": 3,
        "athletic": 4,
        "lonely": 3,
        "budget": 3,
        "fur": 3,
        "apartment": 1,
        "description": "Le Berger Allemand est un chien robuste, athlétique et endurant. Il est doté d’un corps très harmonieux et bâti pour l’effort physique. Depuis 10 ans, il règne en maître sur la 1e place du podium des chiens préférés des Français. Le Berger Allemand est un chien complet, infatigable, docile, vigilant et très attaché à son propriétaire.",
        "image": "https://www.letribunaldunet.fr/wp-content/uploads/2019/10/berger-allemand-adorable--720x471.jpg"
    },
    {
        "breed": "Welsh Corgi",
        "playful": 3,
        "obedient": 1,
        "clean": 3,
        "calm": 3,
        "smart": 3,
        "kind": 4,
        "durable": 4,
        "athletic": 3,
        "lonely": 4,
        "budget": 3,
        "fur": 4,
        "apartment": 3,
        "description": "Le Welsh Corgi Pembroke est un chien bas sur pattes, de constitution robuste et plutôt compacte. Ce chien aux allures de renard est plus léger et plus petit que son proche cousin, le Welsh Corgi Cardigan.",
        "image": "https://img.freepik.com/photos-gratuite/adorable-chiot-mignon-welsh-corgi-pembroke_194143-709.jpg?size=626&ext=jpg"
    },
    {
        "breed": "Braque de Weimar",
        "playful": 4,
        "obedient": 2,
        "clean": 3,
        "calm": 3,
        "smart": 3,
        "kind": 4,
        "durable": 3,
        "athletic": 4,
        "lonely": 1,
        "budget": 3,
        "fur": 1,
        "apartment": 2,
        "description": "Chien d’arrêt d’origine allemande, le Braque de Weimar est de taille moyenne à grande. Il arbore un corps athlétique, à la fois élancé et musclé. Compagnon de vie idéal pour les familles, il est également le chien de chasse par excellence.",
        "image": "https://www.eleveurs-online.com/data/eleveur/51/1600-50486.275.jpg"
    },
    {
        "breed": "Bulldog",
        "playful": 3,
        "obedient": 2,
        "clean": 2,
        "calm": 4,
        "smart": 3,
        "kind": 3,
        "durable": 1,
        "athletic": 1,
        "lonely": 1,
        "budget": 3,
        "fur": 0,
        "apartment": 4,
        "description": "Le Bulldog Anglais se distingue au premier abord par sa tête massive et inégalement plus grande que le reste du corps qui lui donne un air grognon. Ses babines toujours en suspension font également partie de ses principaux traits. Dès qu’on voit l’animal, on note une grande robustesse malgré ses pattes très courtes.",
        "image": "https://www.chiens-de-france.com/photo/eleveurs/228/45550/portees/c666a87b-5bbe-b5a4-1d3d-8b8628e9b02e_min.jpg"
    }
]