[
    {
        "place": "Domaine des oliviers, Ville du Sud",
        "name": "Les Oliviers",
        "UserId": 2,
        "DogId": 1
    },
    {
        "place": "Domaine des acacias, Ville de l'Ouest",
        "name": "Les Acacias",
        "UserId": 2,
        "DogId": 2
    }
]